tam01
tam01
tam01
tam01
tam01
tam01
tam01
tam01
tam01
tam01
tam01
tam01
tam01
tam01
tam01
tam01
tam01
tam01
tam01
tam01
tam01
tam01
tam01
tam01
tam01
tam01
tam01
tam01
tam01
tam01
tam01
tam01
tam01
tam01
tam01
tam01
tam01
tam01
tam01
tam01
tam01
tam01
tam01
tam01
tam01
tam01
tam01
tam01
tam01
tam01
tam01
tam01
tam01
tam01
tam01
tam01
tam01
tam01
tam01
tam01
tam01
tam01
tam01
tam01
tam01
tam01
tam01
tam01
tam01
tam01
tam01
tam01
tam01
tam01
tam01
tam01
tam01
tam01
tam01
tam01
tam01
tam01
tam01
tam01
tam01
tam01
tam01
tam01
tam01
tam01
tam01
tam01
tam01
tam01
tam01
tam01
tam01
tam01
tam01
tam01
tam01
tam01
tam01
tam01
tam01
tam01
tam01
tam01
tam01
tam01
tam01
tam01
tam01
tam01
tam01
tam01
tam01
tam01
tam01
tam01
tam01
tam01
tam01
tam01
tam01
tam01
tam01
tam01
tam01
tam01
tam01
tam01
tam01
tam01
tam01
tam01
tam01
tam01
tam01
tam01
tam01
tam01
tam01
tam01
tam01
tam01
tam01
tam01
tam01
tam01
tam01
tam01
tam01
tam01
tam01
tam01
tam01
tam01
tam01
tam01
tam01
tam01
tam01
tam01
tam01
tam01
tam01
tam01
tam01
tam01
tam01
tam01
tam01
tam01
tam01
tam01
tam01
tam01
tam01
tam01
tam01
tam01
tam01
tam01
tam01
tam01
tam01
tam01
tam01
tam01
tam01
tam01
tam01
tam01
tam01
tam01
tam01
tam01
tam01
tam01
tam01
tam01
tam01
tam01
tam01
tam01
tam01
tam01
tam01
tam01
tam01
tam01
tam01
tam01
tam01
tam01
tam01
tam01
tam01
tam01
tam01
tam01
tam01
tam01
tam01
tam01
tam01
tam01
tam01
tam01
tam01
tam01
tam01
tam01
tam01
tam01
tam01
tam01
tam01
tam01
tam01
tam01
tam01
tam01
tam01
tam01
tam01
tam01
tam01
tam01
tam01
tam01
tam01
tam01
tam01
tam01
tam01
tam01
tam01
tam01
tam01
tam01
tam01
tam01
tam01
tam01
tam01
tam01
tam01
tam01
tam01
tam01
tam01
tam01
tam01
tam01
tam01
tam01
tam01
tam01
tam01
tam01
tam01
tam01
tam01
tam01
tam01
tam01
tam01
tam01
tam01
tam01
tam01
tam01
tam01
tam01
tam01
tam01
tam01
tam01
tam01
tam01
tam01
tam01
tam01
tam01
tam01
tam01
tam01
tam01
tam01
tam01
tam01
tam01
tam01
tam01
tam01
tam01
tam01
tam01
tam01
tam01
tam01
tam01
tam01
tam01
tam01
tam01
tam01
tam01
tam01
tam01
tam01
tam01
tam01
tam01
tam01
tam01
tam01
tam01
tam01
tam01
tam01
tam01
tam01
tam01
tam01
tam01
tam01
tam01
tam01
tam01
tam01
tam01
tam01
tam01
tam01
tam01
tam01
tam01
tam01
tam01
tam01
tam01
tam01
tam01
tam01
tam01
tam01
tam01
tam01
tam01
tam01
tam01
tam01
tam01
tam01
tam01
tam01
tam01
tam01
tam01
tam01
tam01
tam01
tam01
tam01
tam01
tam01
tam01
tam01
tam01
tam01
tam01
tam01
tam01
tam01
tam01
tam01
tam01
tam01
tam01
tam01
tam01
tam01
tam01
tam01
tam01
tam01
tam01
tam01
tam01
tam01
tam01
tam01
tam01
tam01
tam01
tam01
tam01
tam01
tam01
tam01
tam01
tam01
tam01
tam01
tam01
tam01
tam01
tam01
tam01
tam01
tam01
tam01
tam01
tam01
tam01
tam01
tam01
tam01
tam01
tam01
tam01
tam01
tam01
tam01
tam01
tam01
tam01
tam01
tam01
tam01
tam01
tam01
tam01
tam01
tam01
tam01
tam01
tam01
tam01
tam01
tam01
tam01
tam01
tam01
tam01
tam01
tam01
tam01
tam01
tam01
tam01
tam01
tam01
tam01
tam01
tam01
tam01
tam01
tam01
tam01
tam01
tam01
tam01
tam01
tam01
tam01
tam01
tam01
tam01
tam01
tam01
tam01
tam01
tam01
tam01
tam01
tam01
tel01
tel01
tel01
tel01
tel01
tel01
tel01
tel01
tel01
tel01
tel01
tel01
tel01
tel01
tel01
tel01
tel01
tel01
tel01
tel01
tel01
tel01
tel01
tel01
tel01
tel01
tel01
tel01
tel01
tel01
tel01
tel01
tel01
tel01
tel01
tel01
tel01
tel01
tel01
tel01
tel01
tel01
tel01
tel01
tel01
tel01
tel01
tel01
tel01
tel01
tel01
tel01
tel01
tel01
tel01
tel01
tel01
tel01
tel01
tel01
tel01
tel01
tel01
tel01
tel01
tel01
tel01
tel01
tel01
tel01
tel01
tel01
tel01
tel01
tel01
tel01
tel01
tel01
tel01
tel01
tel01
tel01
tel01
tel01
tel01
tel01
tel01
tel01
tel01
tel01
tel01
tel01
tel01
tel01
tel01
tel01
tel01
tel01
tel01
tel01
tel01
tel01
tel01
tel01
tel01
tel01
tel01
tel01
tel01
tel01
tel01
tel01
tel01
tel01
tel01
tel01
tel01
tel01
tel01
tel01
tel01
tel01
tel01
tel01
tel01
tel01
tel01
tel01
tel01
tel01
tel01
tel01
tel01
tel01
tel01
tel01
tel01
tel01
tel01
tel01
tel01
tel01
tel01
tel01
tel01
tel01
tel01
tel01
tel01
tel01
tel01
tel01
tel01
tel01
tel01
tel01
tel01
tel01
tel01
tel01
tel01
tel01
tel01
tel01
tel01
tel01
tel01
tel01
tel01
tel01
tel01
tel01
tel01
tel01
tel01
tel01
tel01
tel01
tel01
tel01
tel01
tel01
tel01
tel01
tel01
tel01
tel01
tel01
tel01
tel01
tel01
tel01
tel01
tel01
tel01
tel01
tel01
tel01
tel01
tel01
tel01
tel01
tel01
tel01
tel01
tel01
tel01
tel01
tel01
tel01
tel01
tel01
tel01
tel01
tel01
tel01
tel01
tel01
tel01
tel01
tel01
tel01
tel01
tel01
tel01
tel01
tel01
tel01
tel01
tel01
tel01
tel01
tel01
tel01
tel01
tel01
tel01
tel01
tel01
tel01
tel01
tel01
tel01
tel01
tel01
tel01
tel01
tel01
tel01
tel01
tel01
tel01
tel01
tel01
tel01
tel01
tel01
tel01
tel01
tel01
tel01
tel01
tel01
tel01
tel01
tel01
tel01
tel01
tel01
tel01
tel01
tel01
tel01
tel01
tel01
tel01
tel01
tel01
tel01
tel01
tel01
tel01
tel01
tel01
tel01
tel01
tel01
tel01
tel01
tel01
tel01
tel01
tel01
tel01
tel01
tel01
tel01
tel01
tel01
tel01
tel01
tel01
tel01
tel01
tel01
tel01
tel01
tel01
tel01
tel01
tel01
tel01
tel01
tel01
tel01
tel01
tel01
tel01
tel01
tel01
tel01
tel01
tel01
tel01
tel01
tel01
tel01
tel01
tel01
tel01
tel01
tel01
tel01
tel01
tel01
tel01
tel01
tel01
tel01
tel01
tel01
tel01
tel01
tel01
tel01
tel01
tel01
tel01
tel01
tel01
tel01
tel01
tel01
tel01
tel01
tel01
tel01
tel01
tel01
tel01
tel01
tel01
tel01
tel01
tel01
tel01
tel01
tel01
tel01
tel01
tel01
tel01
tel01
tel01
tel01
tel01
tel01
tel01
tel01
tel01
tel01
tel01
tel01
tel01
tel01
tel01
tel01
tel01
tel01
tel01
tel01
tel01
tel01
tel01
tel01
tel01
tel01
tel01
tel01
tel01
tel01
tel01
tel01
tel01
tel01
tel01
tel01
tel01
tel01
tel01
tel01
tel01
tel01
tel01
tel01
tel01
tel01
tel01
tel01
tel01
tel01
tel01
tel01
tel01
tel01
tel01
tel01
tel01
tel01
tel01
tel01
tel01
tel01
tel01
tel01
tel01
tel01
tel01
tel01
tel01
tel01
tel01
tel01
tel01
tel01
tel01
tel01
tel01
tel01
tel01
tel01
tel01
tel01
tel01
tel01
tel01
tel01
tel01
tel01
tel01
tel01
tel01
tel01
tel01
tel01
tel01
tel01
tel01
tel01
tel01
tel01
tel01
tel01
tel01
tel01
tel01
tel01
tel01
tel01
tel01
tel01
tel01
tel01
tel01
tel01
tel01
tel01
tel01
tel01
tel01
tel01
tel01
tel01
tel01
tel01
tel01
tel01
tel01
tel01
tel01
hin01
hin01
hin01
hin01
hin01
hin01
hin01
hin01
hin01
hin01
hin01
hin01
hin01
hin01
hin01
hin01
hin01
hin01
hin01
hin01
hin01
hin01
hin01
hin01
hin01
hin01
hin01
hin01
hin01
hin01
hin01
hin01
hin01
hin01
hin01
hin01
hin01
hin01
hin01
hin01
hin01
hin01
hin01
hin01
hin01
hin01
hin01
hin01
hin01
hin01
hin01
hin01
hin01
hin01
hin01
hin01
hin01
hin01
hin01
hin01
hin01
hin01
hin01
hin01
hin01
hin01
hin01
hin01
hin01
hin01
hin01
hin01
hin01
hin01
hin01
hin01
hin01
hin01
hin01
hin01
hin01
hin01
hin01
hin01
hin01
hin01
hin01
hin01
hin01
hin01
hin01
hin01
hin01
hin01
hin01
hin01
hin01
hin01
hin01
hin01
hin01
hin01
hin01
hin01
hin01
hin01
hin01
hin01
hin01
hin01
hin01
hin01
hin01
hin01
hin01
hin01
hin01
hin01
hin01
hin01
hin01
hin01
hin01
hin01
hin01
hin01
hin01
hin01
hin01
hin01
hin01
hin01
hin01
hin01
hin01
hin01
hin01
hin01
hin01
hin01
hin01
hin01
hin01
hin01
hin01
hin01
hin01
hin01
hin01
hin01
hin01
hin01
hin01
hin01
hin01
hin01
hin01
hin01
hin01
hin01
hin01
hin01
hin01
hin01
hin01
hin01
hin01
hin01
hin01
hin01
hin01
hin01
hin01
hin01
hin01
hin01
hin01
hin01
hin01
hin01
hin01
hin01
hin01
hin01
hin01
hin01
hin01
hin01
hin01
hin01
hin01
hin01
hin01
hin01
hin01
hin01
hin01
hin01
hin01
hin01
hin01
hin01
hin01
hin01
hin01
hin01
hin01
hin01
hin01
hin01
hin01
hin01
hin01
hin01
hin01
hin01
hin01
hin01
hin01
hin01
hin01
hin01
hin01
hin01
hin01
hin01
hin01
hin01
hin01
hin01
hin01
hin01
hin01
hin01
hin01
hin01
hin01
hin01
hin01
hin01
hin01
hin01
hin01
hin01
hin01
hin01
hin01
hin01
hin01
hin01
hin01
hin01
hin01
hin01
hin01
hin01
hin01
hin01
hin01
hin01
hin01
hin01
hin01
hin01
hin01
hin01
hin01
hin01
hin01
hin01
hin01
hin01
hin01
hin01
hin01
hin01
hin01
hin01
hin01
hin01
hin01
hin01
hin01
hin01
hin01
hin01
hin01
hin01
hin01
hin01
hin01
hin01
hin01
hin01
hin01
hin01
hin01
hin01
hin01
hin01
hin01
hin01
hin01
hin01
hin01
hin01
hin01
hin01
hin01
hin01
hin01
hin01
hin01
hin01
hin01
hin01
hin01
hin01
hin01
hin01
hin01
hin01
hin01
hin01
hin01
hin01
hin01
hin01
hin01
hin01
hin01
hin01
hin01
hin01
hin01
hin01
hin01
hin01
hin01
hin01
hin01
hin01
hin01
hin01
hin01
hin01
hin01
hin01
hin01
hin01
hin01
hin01
hin01
hin01
hin01
hin01
hin01
hin01
hin01
hin01
hin01
hin01
hin01
hin01
hin01
hin01
hin01
hin01
hin01
hin01
hin01
hin01
hin01
hin01
hin01
hin01
hin01
hin01
hin01
hin01
hin01
hin01
hin01
hin01
hin01
hin01
hin01
hin01
hin01
hin01
hin01
hin01
hin01
hin01
hin01
hin01
hin01
hin01
hin01
hin01
hin01
hin01
hin01
hin01
hin01
hin01
hin01
hin01
hin01
hin01
hin01
hin01
hin01
hin01
hin01
hin01
hin01
hin01
hin01
hin01
hin01
hin01
hin01
hin01
hin01
hin01
hin01
hin01
hin01
hin01
hin01
hin01
hin01
hin01
hin01
hin01
hin01
hin01
hin01
hin01
hin01
hin01
hin01
hin01
hin01
hin01
hin01
hin01
hin01
hin01
hin01
hin01
hin01
hin01
hin01
hin01
hin01
hin01
hin01
hin01
hin01
hin01
hin01
hin01
hin01
hin01
hin01
hin01
hin01
hin01
hin01
hin01
hin01
hin01
hin01
hin01
hin01
hin01
hin01
hin01
hin01
hin01
hin01
hin01
hin01
hin01
hin01
hin01
hin01
hin01
hin01
hin01
hin01
hin01
hin01
hin01
hin01
hin01
hin01
hin01
tam01
tam01
tam01
tam01
tam01
tam01
tam01
tam01
tam01
tam01
tam01
tam01
tam01
tam01
tam01
tam01
tam01
tam01
tam01
tam01
tam01
tam01
tam01
tam01
tam01
tam01
tam01
tam01
tam01
tam01
tam01
tam01
tam01
tam01
tam01
tam01
tam01
tam01
tam01
tam01
tam01
tam01
tam01
tam01
tam01
tam01
tam01
tam01
tam01
tam01
tam01
tam01
tam01
tam01
tam01
tam01
tam01
tam01
tam01
tam01
tam01
tam01
tam01
tam01
tam01
tam01
tam01
tam01
tam01
tam01
tam01
tam01
tam01
tam01
tam01
tam01
tam01
tam01
tam01
tam01
tam01
tam01
tam01
tam01
tam01
tam01
tam01
tam01
tam01
tam01
tam01
tam01
tam01
tam01
tam01
tam01
tam01
tam01
tam01
tam01
tam01
tam01
tam01
tam01
tam01
tam01
tam01
tam01
tam01
tam01
tam01
tam01
tam01
tam01
tam01
tam01
tam01
tam01
tam01
tam01
tam01
tam01
tam01
tam01
tam01
tam01
tam01
tam01
tam01
tam01
tam01
tam01
tam01
tam01
tam01
tam01
tam01
tam01
tam01
tam01
tam01
tam01
tam01
tam01
tam01
tam01
tam01
tam01
tam01
tam01
tam01
tam01
tam01
tam01
tam01
tam01
tam01
tam01
tam01
tam01
tam01
tam01
tam01
tam01
tam01
tam01
tam01
tam01
tam01
tam01
tam01
tam01
tam01
tam01
tam01
tam01
tam01
tam01
tam01
tam01
tam01
tam01
tam01
tam01
tam01
tam01
tam01
tam01
tam01
tam01
tam01
tam01
tam01
tam01
tam01
tam01
tam01
tam01
tam01
tam01
tam01
tam01
tam01
tam01
tam01
tam01
tam01
tam01
tam01
tam01
tam01
tam01
tam01
tam01
tam01
tam01
tam01
tam01
tam01
tam01
tam01
tam01
tam01
tam01
tam01
tam01
tam01
tam01
tam01
tam01
tam01
tam01
tam01
tam01
tam01
tam01
tam01
tam01
tam01
tam01
tam01
tam01
tam01
tam01
tam01
tam01
tam01
tam01
tam01
tam01
tam01
tam01
tam01
tam01
tam01
tam01
tam01
tam01
tam01
tam01
tam01
tam01
tam01
tam01
tam01
tam01
tam01
tam01
tam01
tam01
tam01
tam01
tam01
tam01
tam01
tam01
tam01
tam01
tam01
tam01
tam01
tam01
tam01
tam01
tam01
tam01
tam01
tam01
tam01
tam01
tam01
tam01
tam01
tam01
tam01
tam01
tam01
tam01
tam01
tam01
tam01
tam01
tam01
tam01
tam01
tam01
tam01
tam01
tam01
tam01
tam01
tam01
tam01
tam01
tam01
tam01
tam01
tam01
tam01
tam01
tam01
tam01
tam01
tam01
tam01
tam01
tam01
tam01
tam01
tam01
tam01
tam01
tam01
tam01
tam01
tam01
tam01
tam01
tam01
tam01
tam01
tam01
tam01
tam01
tam01
tam01
tam01
tam01
tam01
tam01
tam01
tam01
tam01
tam01
tam01
tam01
tam01
tam01
tam01
tam01
tam01
tam01
tam01
tam01
tam01
tam01
tam01
tam01
tam01
tam01
tam01
tam01
tam01
tam01
tam01
tam01
tam01
tam01
tam01
tam01
tam01
tam01
tam01
tam01
tam01
tam01
tam01
tam01
tam01
tam01
tam01
tam01
tam01
tam01
tam01
tam01
tam01
tam01
tam01
tam01
tam01
tam01
tam01
tam01
tam01
tam01
tam01
tam01
tam01
tam01
tam01
tam01
tam01
tam01
tam01
tam01
tam01
tam01
tam01
tam01
tam01
tam01
tam01
tam01
tam01
tam01
tam01
tam01
tam01
tam01
tam01
tam01
tam01
tam01
tam01
tam01
tam01
tam01
tam01
tam01
tam01
tam01
tam01
tam01
tam01
tam01
tam01
tam01
tam01
tam01
tam01
tam01
tam01
tam01
tam01
tam01
tam01
tam01
tam01
tam01
tam01
tam01
tam01
tam01
tam01
tam01
tam01
tam01
tam01
tam01
tam01
tam01
tam01
tam01
tam01
tam01
tam01
tam01
tam01
tam01
tam01
tam01
tam01
tam01
tam01
tam01
tam01
tam01
tam01
tam01
tam01
tam01
tam01
tam01
tam01
tam01
tam01
tam01
tam01
tam01
